{
  "Plugins": {
    "dev": {
      "Name": "dev",
      "Aliases": null,
      "Version": {
        "Major": 2,
        "Minor": 4,
        "Build": 6
      },
      "MinCliVersion": {
        "Major": 0,
        "Minor": 4,
        "Build": 2
      },
      "Namespaces": [
        {
          "ParentName": "",
          "Name": "dev",
          "Aliases": null,
          "Description": "Crear, desarrollar, desplegar y supervisar aplicaciones",
          "Stage": ""
        }
      ],
      "Commands": [
        {
          "Namespace": "dev",
          "Name": "*",
          "Alias": "",
          "Aliases": null,
          "Description": "ejecutarmúltipleC:\\Program Files\\IBM\\Cloud\\bin\\ibmcloud.exe dev mandatos",
          "Usage": "C:\\Program Files\\IBM\\Cloud\\bin\\ibmcloud.exe dev \u003cmúltipleC:\\Program Files\\IBM\\Cloud\\bin\\ibmcloud.exe dev mandatos\u003e",
          "Flags": [
            {
              "Name": "caller-atom",
              "Description": "\u003cinsert-easter-egg-here\u003e",
              "HasValue": true,
              "Hidden": false
            },
            {
              "Name": "caller-eclipse",
              "Description": "\u003cinsert-easter-egg-here\u003e",
              "HasValue": true,
              "Hidden": false
            },
            {
              "Name": "caller-jetbrains",
              "Description": "\u003cinsert-easter-egg-here\u003e",
              "HasValue": true,
              "Hidden": false
            },
            {
              "Name": "caller-vscode",
              "Description": "\u003cinsert-easter-egg-here\u003e",
              "HasValue": true,
              "Hidden": false
            },
            {
              "Name": "caller-xcode",
              "Description": "\u003cinsert-easter-egg-here\u003e",
              "HasValue": true,
              "Hidden": false
            },
            {
              "Name": "config-file",
              "Description": "Cargar configuración desde archivo",
              "HasValue": true,
              "Hidden": false
            },
            {
              "Name": "container-name-run",
              "Description": "El contenedor de ejecución para ejecutar su aplicación",
              "HasValue": true,
              "Hidden": false
            },
            {
              "Name": "container-name",
              "Description": "Especifique un nombre de contenedor en la línea de mandatos",
              "HasValue": true,
              "Hidden": false
            },
            {
              "Name": "container-name-tools",
              "Description": "El contenedor de herramientas con herramientas de prueba y compilación",
              "HasValue": true,
              "Hidden": false
            },
            {
              "Name": "use-root-user-tools",
              "Description": "Utilizar el usuario raíz para el contenedor de herramientas",
              "HasValue": false,
              "Hidden": false
            },
            {
              "Name": "host-path-run",
              "Description": "Vía de acceso para compilar la aplicación en el sistema host",
              "HasValue": true,
              "Hidden": false
            },
            {
              "Name": "host-path-tools",
              "Description": "Vía de acceso al código fuente de la aplicación en el sistema host",
              "HasValue": true,
              "Hidden": false
            },
            {
              "Name": "container-path-run",
              "Description": "Ubicación para una aplicación en el contenedor de ejecución",
              "HasValue": true,
              "Hidden": false
            },
            {
              "Name": "container-path-tools",
              "Description": "Vía de acceso a las herramientas en el contenedor de herramientas",
              "HasValue": true,
              "Hidden": false
            },
            {
              "Name": "build-cmd-run",
              "Description": "Mandato de compilación para preparar la aplicación para su utilización",
              "HasValue": true,
              "Hidden": false
            },
            {
              "Name": "build-cmd-debug",
              "Description": "Mandato de compilación para preparar la aplicación para su depuración",
              "HasValue": true,
              "Hidden": false
            },
            {
              "Name": "test-cmd",
              "Description": "Mandato para probar aplicaciones en un contenedor",
              "HasValue": true,
              "Hidden": false
            },
            {
              "Name": "debug-cmd",
              "Description": "Mandato para depurar aplicaciones en un contenedor",
              "HasValue": true,
              "Hidden": false
            },
            {
              "Name": "run-cmd",
              "Description": "Mandato para ejecutar aplicaciones en el contenedor de ejecución",
              "HasValue": true,
              "Hidden": false
            },
            {
              "Name": "container-port-map",
              "Description": "Correlaciones de puerto \u003cpuerto host\u003e:\u003cpuerto contenedor\u003e, ...",
              "HasValue": true,
              "Hidden": false
            },
            {
              "Name": "container-port-map-debug",
              "Description": "Correlaciones de puerto utilizadas para la depuración",
              "HasValue": true,
              "Hidden": false
            },
            {
              "Name": "image-name-tools",
              "Description": "Imagen con las herramientas para compilar y probar aplicaciones",
              "HasValue": true,
              "Hidden": false
            },
            {
              "Name": "image-name-run",
              "Description": "La imagen para ejecutar su aplicación",
              "HasValue": true,
              "Hidden": false
            },
            {
              "Name": "dockerfile-run",
              "Description": "El contenedor de ejecución Dockerfile",
              "HasValue": true,
              "Hidden": false
            },
            {
              "Name": "dockerfile-tools",
              "Description": "El contenedor de herramientas Dockerfile",
              "HasValue": true,
              "Hidden": false
            },
            {
              "Name": "debug, d",
              "Description": "Compilar la aplicación utilizando la propiedad build-cmd-debug. Obligado para utilizar los mandatos 'test' o 'debug'. ",
              "HasValue": true,
              "Hidden": false
            },
            {
              "Name": "trace",
              "Description": "Visualizar mensajes más detallados",
              "HasValue": true,
              "Hidden": false
            },
            {
              "Name": "json",
              "Description": "Opcional: Imprime la salida del mandato en formato JSON.",
              "HasValue": true,
              "Hidden": false
            },
            {
              "Name": "target, t",
              "Description": "Tipo de destino de despliegue: buildpack|container",
              "HasValue": true,
              "Hidden": false
            },
            {
              "Name": "ibm-cluster",
              "Description": "Clúster IBM utilizado para alojar un contenedor",
              "HasValue": true,
              "Hidden": false
            },
            {
              "Name": "chart-path",
              "Description": "Vía de acceso al directorio chart de helm utilizado para desplegar un contenedor",
              "HasValue": true,
              "Hidden": false
            },
            {
              "Name": "deploy-image-target",
              "Description": "Nombre de la imagen de destino utilizada para desplegar un contenedor, por ejemplo, etiquetada para un registro Docker",
              "HasValue": true,
              "Hidden": false
            },
            {
              "Name": "force, f",
              "Description": "Forzar la ejecución del mandato",
              "HasValue": true,
              "Hidden": false
            },
            {
              "Name": "language, l",
              "Description": "Seleccione uno de los siguientes:\n\t\t\t\tjava-ee : Liberty Java EE\n\t\t\t\tjava-mp : Liberty Java MicroProfile\n\t\t\t\tjava-spring : Spring Boot Framework\n\t\t\t\tnode : Node.js\n\t\t\t\tpython : Python - Flask\n\t\t\t\tdjango : Python - Django\n\t\t\t\tswift : Swift\n\t\t\t\tgo : Golang",
              "HasValue": true,
              "Hidden": false
            },
            {
              "Name": "container-mounts-run",
              "Description": "Definir montajes entre el sistema host y el contenedor de ejecución",
              "HasValue": true,
              "Hidden": false
            },
            {
              "Name": "container-mounts-tools",
              "Description": "Definir montajes entre el sistema host y el contenedor de herramientas",
              "HasValue": true,
              "Hidden": false
            },
            {
              "Name": "no-open",
              "Description": "No abrir el navegador",
              "HasValue": true,
              "Hidden": false
            },
            {
              "Name": "web-app-root",
              "Description": "Raíz de aplicación para añadir al URL de la aplicación de Kubernetes",
              "HasValue": true,
              "Hidden": false
            },
            {
              "Name": "container-shell",
              "Description": "Mandato al abrir un shell en el contenedor de ejecución. El predeterminado es '/bin/sh'.",
              "HasValue": true,
              "Hidden": false
            },
            {
              "Name": "container-shell-target",
              "Description": "El contenedor predeterminado que se debería utilizar al abrir el shell sin especificar 'tools' o 'run' de forma explícita como un parámetro de la interfaz de línea de mandatos. Los valores válidos son 'tools' o 'run'.",
              "HasValue": true,
              "Hidden": false
            },
            {
              "Name": "job-id",
              "Description": "Especificar el ID de trabajo (requiere ID de etapa)",
              "HasValue": true,
              "Hidden": false
            },
            {
              "Name": "job-exec-id",
              "Description": "Especificar el ID de ejecución de trabajo (requiere ID de etapa e ID de trabajo)",
              "HasValue": true,
              "Hidden": false
            },
            {
              "Name": "stage-id",
              "Description": "Especificar el ID de etapa",
              "HasValue": true,
              "Hidden": false
            }
          ],
          "Hidden": false,
          "Stage": ""
        },
        {
          "Namespace": "dev",
          "Name": "build",
          "Alias": "",
          "Aliases": null,
          "Description": "Compilar la aplicación en un contenedor local",
          "Usage": "C:\\Program Files\\IBM\\Cloud\\bin\\ibmcloud.exe dev build [opciones]",
          "Flags": [
            {
              "Name": "caller-atom",
              "Description": "\u003cinsert-easter-egg-here\u003e",
              "HasValue": true,
              "Hidden": false
            },
            {
              "Name": "caller-eclipse",
              "Description": "\u003cinsert-easter-egg-here\u003e",
              "HasValue": true,
              "Hidden": false
            },
            {
              "Name": "caller-jetbrains",
              "Description": "\u003cinsert-easter-egg-here\u003e",
              "HasValue": true,
              "Hidden": false
            },
            {
              "Name": "caller-vscode",
              "Description": "\u003cinsert-easter-egg-here\u003e",
              "HasValue": true,
              "Hidden": false
            },
            {
              "Name": "caller-xcode",
              "Description": "\u003cinsert-easter-egg-here\u003e",
              "HasValue": true,
              "Hidden": false
            },
            {
              "Name": "config-file",
              "Description": "Cargar configuración desde archivo",
              "HasValue": true,
              "Hidden": false
            },
            {
              "Name": "container-name-tools",
              "Description": "El contenedor de herramientas con herramientas de prueba y compilación",
              "HasValue": true,
              "Hidden": false
            },
            {
              "Name": "host-path-tools",
              "Description": "Vía de acceso al código fuente de la aplicación en el sistema host",
              "HasValue": true,
              "Hidden": false
            },
            {
              "Name": "container-path-tools",
              "Description": "Vía de acceso a las herramientas en el contenedor de herramientas",
              "HasValue": true,
              "Hidden": false
            },
            {
              "Name": "container-mounts-run",
              "Description": "Definir montajes entre el sistema host y el contenedor de ejecución",
              "HasValue": true,
              "Hidden": false
            },
            {
              "Name": "container-mounts-tools",
              "Description": "Definir montajes entre el sistema host y el contenedor de herramientas",
              "HasValue": true,
              "Hidden": false
            },
            {
              "Name": "use-root-user-tools",
              "Description": "Utilizar el usuario raíz para el contenedor de herramientas",
              "HasValue": false,
              "Hidden": false
            },
            {
              "Name": "build-cmd-run",
              "Description": "Mandato de compilación para preparar la aplicación para su utilización",
              "HasValue": true,
              "Hidden": false
            },
            {
              "Name": "debug, d",
              "Description": "Compilar la aplicación utilizando la propiedad build-cmd-debug. Obligado para utilizar los mandatos 'test' o 'debug'. ",
              "HasValue": true,
              "Hidden": false
            },
            {
              "Name": "container-port-map",
              "Description": "Correlaciones de puerto \u003cpuerto host\u003e:\u003cpuerto contenedor\u003e, ...",
              "HasValue": true,
              "Hidden": false
            },
            {
              "Name": "image-name-tools",
              "Description": "Imagen con las herramientas para compilar y probar aplicaciones",
              "HasValue": true,
              "Hidden": false
            },
            {
              "Name": "dockerfile-tools",
              "Description": "El contenedor de herramientas Dockerfile",
              "HasValue": true,
              "Hidden": false
            },
            {
              "Name": "trace",
              "Description": "Visualizar mensajes más detallados",
              "HasValue": true,
              "Hidden": false
            }
          ],
          "Hidden": false,
          "Stage": ""
        },
        {
          "Namespace": "dev",
          "Name": "code",
          "Alias": "",
          "Aliases": null,
          "Description": "Descargar el código desde una aplicación",
          "Usage": "C:\\Program Files\\IBM\\Cloud\\bin\\ibmcloud.exe dev code APPLICATION_NAME [opciones]",
          "Flags": [
            {
              "Name": "caller-atom",
              "Description": "\u003cinsert-easter-egg-here\u003e",
              "HasValue": true,
              "Hidden": false
            },
            {
              "Name": "caller-eclipse",
              "Description": "\u003cinsert-easter-egg-here\u003e",
              "HasValue": true,
              "Hidden": false
            },
            {
              "Name": "caller-jetbrains",
              "Description": "\u003cinsert-easter-egg-here\u003e",
              "HasValue": true,
              "Hidden": false
            },
            {
              "Name": "caller-vscode",
              "Description": "\u003cinsert-easter-egg-here\u003e",
              "HasValue": true,
              "Hidden": false
            },
            {
              "Name": "caller-xcode",
              "Description": "\u003cinsert-easter-egg-here\u003e",
              "HasValue": true,
              "Hidden": false
            },
            {
              "Name": "trace",
              "Description": "Visualizar mensajes más detallados",
              "HasValue": true,
              "Hidden": false
            }
          ],
          "Hidden": false,
          "Stage": ""
        },
        {
          "Namespace": "dev",
          "Name": "console",
          "Alias": "",
          "Aliases": null,
          "Description": "Abrir la consola de IBM Cloud para una aplicación",
          "Usage": "C:\\Program Files\\IBM\\Cloud\\bin\\ibmcloud.exe dev console APPLICATION_NAME",
          "Flags": [
            {
              "Name": "caller-atom",
              "Description": "\u003cinsert-easter-egg-here\u003e",
              "HasValue": true,
              "Hidden": false
            },
            {
              "Name": "caller-eclipse",
              "Description": "\u003cinsert-easter-egg-here\u003e",
              "HasValue": true,
              "Hidden": false
            },
            {
              "Name": "caller-jetbrains",
              "Description": "\u003cinsert-easter-egg-here\u003e",
              "HasValue": true,
              "Hidden": false
            },
            {
              "Name": "caller-vscode",
              "Description": "\u003cinsert-easter-egg-here\u003e",
              "HasValue": true,
              "Hidden": false
            },
            {
              "Name": "caller-xcode",
              "Description": "\u003cinsert-easter-egg-here\u003e",
              "HasValue": true,
              "Hidden": false
            }
          ],
          "Hidden": false,
          "Stage": ""
        },
        {
          "Namespace": "dev",
          "Name": "create",
          "Alias": "",
          "Aliases": null,
          "Description": "Crear una nueva aplicación y proporcionar la opción de añadir servicios",
          "Usage": "C:\\Program Files\\IBM\\Cloud\\bin\\ibmcloud.exe dev create [opciones]",
          "Flags": [
            {
              "Name": "caller-atom",
              "Description": "\u003cinsert-easter-egg-here\u003e",
              "HasValue": true,
              "Hidden": false
            },
            {
              "Name": "caller-eclipse",
              "Description": "\u003cinsert-easter-egg-here\u003e",
              "HasValue": true,
              "Hidden": false
            },
            {
              "Name": "caller-jetbrains",
              "Description": "\u003cinsert-easter-egg-here\u003e",
              "HasValue": true,
              "Hidden": false
            },
            {
              "Name": "caller-vscode",
              "Description": "\u003cinsert-easter-egg-here\u003e",
              "HasValue": true,
              "Hidden": false
            },
            {
              "Name": "caller-xcode",
              "Description": "\u003cinsert-easter-egg-here\u003e",
              "HasValue": true,
              "Hidden": false
            },
            {
              "Name": "trace",
              "Description": "Visualizar mensajes más detallados",
              "HasValue": true,
              "Hidden": false
            }
          ],
          "Hidden": false,
          "Stage": ""
        },
        {
          "Namespace": "dev",
          "Name": "debug",
          "Alias": "",
          "Aliases": null,
          "Description": "Depurar su aplicación un contenedor local",
          "Usage": "C:\\Program Files\\IBM\\Cloud\\bin\\ibmcloud.exe dev debug [opciones]",
          "Flags": [
            {
              "Name": "caller-atom",
              "Description": "\u003cinsert-easter-egg-here\u003e",
              "HasValue": true,
              "Hidden": false
            },
            {
              "Name": "caller-eclipse",
              "Description": "\u003cinsert-easter-egg-here\u003e",
              "HasValue": true,
              "Hidden": false
            },
            {
              "Name": "caller-jetbrains",
              "Description": "\u003cinsert-easter-egg-here\u003e",
              "HasValue": true,
              "Hidden": false
            },
            {
              "Name": "caller-vscode",
              "Description": "\u003cinsert-easter-egg-here\u003e",
              "HasValue": true,
              "Hidden": false
            },
            {
              "Name": "caller-xcode",
              "Description": "\u003cinsert-easter-egg-here\u003e",
              "HasValue": true,
              "Hidden": false
            },
            {
              "Name": "config-file",
              "Description": "Cargar configuración desde archivo",
              "HasValue": true,
              "Hidden": false
            },
            {
              "Name": "container-name-tools",
              "Description": "El contenedor de herramientas con herramientas de prueba y compilación",
              "HasValue": true,
              "Hidden": false
            },
            {
              "Name": "host-path-tools",
              "Description": "Vía de acceso al código fuente de la aplicación en el sistema host",
              "HasValue": true,
              "Hidden": false
            },
            {
              "Name": "container-path-tools",
              "Description": "Vía de acceso a las herramientas en el contenedor de herramientas",
              "HasValue": true,
              "Hidden": false
            },
            {
              "Name": "container-mounts-run",
              "Description": "Definir montajes entre el sistema host y el contenedor de ejecución",
              "HasValue": true,
              "Hidden": false
            },
            {
              "Name": "container-mounts-tools",
              "Description": "Definir montajes entre el sistema host y el contenedor de herramientas",
              "HasValue": true,
              "Hidden": false
            },
            {
              "Name": "use-root-user-tools",
              "Description": "Utilizar el usuario raíz para el contenedor de herramientas",
              "HasValue": false,
              "Hidden": false
            },
            {
              "Name": "build-cmd-debug",
              "Description": "Mandato de compilación para preparar la aplicación para su depuración",
              "HasValue": true,
              "Hidden": false
            },
            {
              "Name": "container-port-map",
              "Description": "Correlaciones de puerto \u003cpuerto host\u003e:\u003cpuerto contenedor\u003e, ...",
              "HasValue": true,
              "Hidden": false
            },
            {
              "Name": "container-port-map-debug",
              "Description": "Correlaciones de puerto utilizadas para la depuración",
              "HasValue": true,
              "Hidden": false
            },
            {
              "Name": "image-name-tools",
              "Description": "Imagen con las herramientas para compilar y probar aplicaciones",
              "HasValue": true,
              "Hidden": false
            },
            {
              "Name": "dockerfile-tools",
              "Description": "El contenedor de herramientas Dockerfile",
              "HasValue": true,
              "Hidden": false
            },
            {
              "Name": "trace",
              "Description": "Visualizar mensajes más detallados",
              "HasValue": true,
              "Hidden": false
            }
          ],
          "Hidden": false,
          "Stage": ""
        },
        {
          "Namespace": "dev",
          "Name": "delete",
          "Alias": "",
          "Aliases": null,
          "Description": "Suprimir una aplicación de su grupo de recursos",
          "Usage": "C:\\Program Files\\IBM\\Cloud\\bin\\ibmcloud.exe dev delete APPLICATION_NAME [opciones]",
          "Flags": [
            {
              "Name": "caller-atom",
              "Description": "\u003cinsert-easter-egg-here\u003e",
              "HasValue": true,
              "Hidden": false
            },
            {
              "Name": "caller-eclipse",
              "Description": "\u003cinsert-easter-egg-here\u003e",
              "HasValue": true,
              "Hidden": false
            },
            {
              "Name": "caller-jetbrains",
              "Description": "\u003cinsert-easter-egg-here\u003e",
              "HasValue": true,
              "Hidden": false
            },
            {
              "Name": "caller-vscode",
              "Description": "\u003cinsert-easter-egg-here\u003e",
              "HasValue": true,
              "Hidden": false
            },
            {
              "Name": "caller-xcode",
              "Description": "\u003cinsert-easter-egg-here\u003e",
              "HasValue": true,
              "Hidden": false
            },
            {
              "Name": "force, f",
              "Description": "Forzar la ejecución del mandato",
              "HasValue": true,
              "Hidden": false
            },
            {
              "Name": "trace",
              "Description": "Visualizar mensajes más detallados",
              "HasValue": true,
              "Hidden": false
            }
          ],
          "Hidden": false,
          "Stage": ""
        },
        {
          "Namespace": "dev",
          "Name": "deploy",
          "Alias": "",
          "Aliases": null,
          "Description": "Desplegar una aplicación en IBM Cloud",
          "Usage": "C:\\Program Files\\IBM\\Cloud\\bin\\ibmcloud.exe dev deploy [opciones]",
          "Flags": [
            {
              "Name": "caller-atom",
              "Description": "\u003cinsert-easter-egg-here\u003e",
              "HasValue": true,
              "Hidden": false
            },
            {
              "Name": "caller-eclipse",
              "Description": "\u003cinsert-easter-egg-here\u003e",
              "HasValue": true,
              "Hidden": false
            },
            {
              "Name": "caller-jetbrains",
              "Description": "\u003cinsert-easter-egg-here\u003e",
              "HasValue": true,
              "Hidden": false
            },
            {
              "Name": "caller-vscode",
              "Description": "\u003cinsert-easter-egg-here\u003e",
              "HasValue": true,
              "Hidden": false
            },
            {
              "Name": "caller-xcode",
              "Description": "\u003cinsert-easter-egg-here\u003e",
              "HasValue": true,
              "Hidden": false
            },
            {
              "Name": "config-file",
              "Description": "Cargar configuración desde archivo",
              "HasValue": true,
              "Hidden": false
            },
            {
              "Name": "image-name-run",
              "Description": "La imagen para ejecutar su aplicación",
              "HasValue": true,
              "Hidden": false
            },
            {
              "Name": "target, t",
              "Description": "Tipo de destino de despliegue: buildpack|container",
              "HasValue": true,
              "Hidden": false
            },
            {
              "Name": "ibm-cluster",
              "Description": "Clúster IBM utilizado para alojar un contenedor",
              "HasValue": true,
              "Hidden": false
            },
            {
              "Name": "cluster-role",
              "Description": "El rol del clúster de IBM utilizado para permitir el despliegue manual en IBM Cloud Kubernetes (por ejemplo, cluster-admin)",
              "HasValue": true,
              "Hidden": false
            },
            {
              "Name": "cluster-service-account",
              "Description": "La cuenta del servicio del clúster utilizada para el despliegue manual en IBM Cloud Kubernetes (por ejemplo, kube-system:default)",
              "HasValue": true,
              "Hidden": false
            },
            {
              "Name": "chart-path",
              "Description": "Vía de acceso al directorio chart de helm utilizado para desplegar un contenedor",
              "HasValue": true,
              "Hidden": false
            },
            {
              "Name": "deploy-image-target",
              "Description": "Nombre de la imagen de destino utilizada para desplegar un contenedor, por ejemplo, etiquetada para un registro Docker",
              "HasValue": true,
              "Hidden": false
            },
            {
              "Name": "trace",
              "Description": "Visualizar mensajes más detallados",
              "HasValue": true,
              "Hidden": false
            },
            {
              "Name": "host",
              "Description": "Nombre de host utilizado para el despliegue de Cloud Foundry",
              "HasValue": true,
              "Hidden": false
            },
            {
              "Name": "domain",
              "Description": "Dominio utilizado para el despliegue de Cloud Foundry",
              "HasValue": true,
              "Hidden": false
            }
          ],
          "Hidden": false,
          "Stage": ""
        },
        {
          "Namespace": "dev",
          "Name": "diag",
          "Alias": "",
          "Aliases": null,
          "Description": "Este mandato visualiza información de versión sobre las dependencias instaladas",
          "Usage": "C:\\Program Files\\IBM\\Cloud\\bin\\ibmcloud.exe dev diag",
          "Flags": [
            {
              "Name": "caller-atom",
              "Description": "\u003cinsert-easter-egg-here\u003e",
              "HasValue": true,
              "Hidden": false
            },
            {
              "Name": "caller-eclipse",
              "Description": "\u003cinsert-easter-egg-here\u003e",
              "HasValue": true,
              "Hidden": false
            },
            {
              "Name": "caller-jetbrains",
              "Description": "\u003cinsert-easter-egg-here\u003e",
              "HasValue": true,
              "Hidden": false
            },
            {
              "Name": "caller-vscode",
              "Description": "\u003cinsert-easter-egg-here\u003e",
              "HasValue": true,
              "Hidden": false
            },
            {
              "Name": "caller-xcode",
              "Description": "\u003cinsert-easter-egg-here\u003e",
              "HasValue": true,
              "Hidden": false
            },
            {
              "Name": "trace",
              "Description": "Visualizar mensajes más detallados",
              "HasValue": true,
              "Hidden": false
            }
          ],
          "Hidden": false,
          "Stage": ""
        },
        {
          "Namespace": "dev",
          "Name": "edit",
          "Alias": "",
          "Aliases": null,
          "Description": "Añadir o eliminar servicios de su aplicación",
          "Usage": "C:\\Program Files\\IBM\\Cloud\\bin\\ibmcloud.exe dev edit [opciones]",
          "Flags": [
            {
              "Name": "caller-atom",
              "Description": "\u003cinsert-easter-egg-here\u003e",
              "HasValue": true,
              "Hidden": false
            },
            {
              "Name": "caller-eclipse",
              "Description": "\u003cinsert-easter-egg-here\u003e",
              "HasValue": true,
              "Hidden": false
            },
            {
              "Name": "caller-jetbrains",
              "Description": "\u003cinsert-easter-egg-here\u003e",
              "HasValue": true,
              "Hidden": false
            },
            {
              "Name": "caller-vscode",
              "Description": "\u003cinsert-easter-egg-here\u003e",
              "HasValue": true,
              "Hidden": false
            },
            {
              "Name": "caller-xcode",
              "Description": "\u003cinsert-easter-egg-here\u003e",
              "HasValue": true,
              "Hidden": false
            },
            {
              "Name": "config-file",
              "Description": "Cargar configuración desde archivo",
              "HasValue": true,
              "Hidden": false
            },
            {
              "Name": "trace",
              "Description": "Visualizar mensajes más detallados",
              "HasValue": true,
              "Hidden": false
            }
          ],
          "Hidden": false,
          "Stage": ""
        },
        {
          "Namespace": "dev",
          "Name": "enable",
          "Alias": "",
          "Aliases": null,
          "Description": "Añadir archivos de IBM Cloud a una aplicación que ya existe (beta)",
          "Usage": "C:\\Program Files\\IBM\\Cloud\\bin\\ibmcloud.exe dev enable [opciones]",
          "Flags": [
            {
              "Name": "caller-atom",
              "Description": "\u003cinsert-easter-egg-here\u003e",
              "HasValue": true,
              "Hidden": false
            },
            {
              "Name": "caller-eclipse",
              "Description": "\u003cinsert-easter-egg-here\u003e",
              "HasValue": true,
              "Hidden": false
            },
            {
              "Name": "caller-jetbrains",
              "Description": "\u003cinsert-easter-egg-here\u003e",
              "HasValue": true,
              "Hidden": false
            },
            {
              "Name": "caller-vscode",
              "Description": "\u003cinsert-easter-egg-here\u003e",
              "HasValue": true,
              "Hidden": false
            },
            {
              "Name": "caller-xcode",
              "Description": "\u003cinsert-easter-egg-here\u003e",
              "HasValue": true,
              "Hidden": false
            },
            {
              "Name": "config-file",
              "Description": "Cargar configuración desde archivo",
              "HasValue": true,
              "Hidden": false
            },
            {
              "Name": "force, f",
              "Description": "Forzar la ejecución del mandato",
              "HasValue": true,
              "Hidden": false
            },
            {
              "Name": "language, l",
              "Description": "Seleccione uno de los siguientes:\n\t\t\t\tjava-ee : Liberty Java EE\n\t\t\t\tjava-mp : Liberty Java MicroProfile\n\t\t\t\tjava-spring : Spring Boot Framework\n\t\t\t\tnode : Node.js\n\t\t\t\tpython : Python - Flask\n\t\t\t\tdjango : Python - Django\n\t\t\t\tswift : Swift\n\t\t\t\tgo : Golang",
              "HasValue": true,
              "Hidden": false
            },
            {
              "Name": "trace",
              "Description": "Visualizar mensajes más detallados",
              "HasValue": true,
              "Hidden": false
            }
          ],
          "Hidden": false,
          "Stage": ""
        },
        {
          "Namespace": "dev",
          "Name": "get-credentials",
          "Alias": "",
          "Aliases": null,
          "Description": "Obtener credenciales que la aplicación necesita para utilizar los servicios conectados",
          "Usage": "C:\\Program Files\\IBM\\Cloud\\bin\\ibmcloud.exe dev get-credentials",
          "Flags": [
            {
              "Name": "caller-atom",
              "Description": "\u003cinsert-easter-egg-here\u003e",
              "HasValue": true,
              "Hidden": false
            },
            {
              "Name": "caller-eclipse",
              "Description": "\u003cinsert-easter-egg-here\u003e",
              "HasValue": true,
              "Hidden": false
            },
            {
              "Name": "caller-jetbrains",
              "Description": "\u003cinsert-easter-egg-here\u003e",
              "HasValue": true,
              "Hidden": false
            },
            {
              "Name": "caller-vscode",
              "Description": "\u003cinsert-easter-egg-here\u003e",
              "HasValue": true,
              "Hidden": false
            },
            {
              "Name": "caller-xcode",
              "Description": "\u003cinsert-easter-egg-here\u003e",
              "HasValue": true,
              "Hidden": false
            },
            {
              "Name": "trace",
              "Description": "Visualizar mensajes más detallados",
              "HasValue": true,
              "Hidden": false
            }
          ],
          "Hidden": false,
          "Stage": ""
        },
        {
          "Namespace": "dev",
          "Name": "help",
          "Alias": "",
          "Aliases": null,
          "Description": "Mostrar ayuda",
          "Usage": "C:\\Program Files\\IBM\\Cloud\\bin\\ibmcloud.exe dev help",
          "Flags": [
            {
              "Name": "caller-atom",
              "Description": "\u003cinsert-easter-egg-here\u003e",
              "HasValue": true,
              "Hidden": false
            },
            {
              "Name": "caller-eclipse",
              "Description": "\u003cinsert-easter-egg-here\u003e",
              "HasValue": true,
              "Hidden": false
            },
            {
              "Name": "caller-jetbrains",
              "Description": "\u003cinsert-easter-egg-here\u003e",
              "HasValue": true,
              "Hidden": false
            },
            {
              "Name": "caller-vscode",
              "Description": "\u003cinsert-easter-egg-here\u003e",
              "HasValue": true,
              "Hidden": false
            },
            {
              "Name": "caller-xcode",
              "Description": "\u003cinsert-easter-egg-here\u003e",
              "HasValue": true,
              "Hidden": false
            }
          ],
          "Hidden": false,
          "Stage": ""
        },
        {
          "Namespace": "dev",
          "Name": "list",
          "Alias": "",
          "Aliases": null,
          "Description": "Listar todas las aplicaciones IBM Cloud en un grupo de recursos",
          "Usage": "C:\\Program Files\\IBM\\Cloud\\bin\\ibmcloud.exe dev list RESOURCE_GROUP [opciones]",
          "Flags": [
            {
              "Name": "caller-atom",
              "Description": "\u003cinsert-easter-egg-here\u003e",
              "HasValue": true,
              "Hidden": false
            },
            {
              "Name": "caller-eclipse",
              "Description": "\u003cinsert-easter-egg-here\u003e",
              "HasValue": true,
              "Hidden": false
            },
            {
              "Name": "caller-jetbrains",
              "Description": "\u003cinsert-easter-egg-here\u003e",
              "HasValue": true,
              "Hidden": false
            },
            {
              "Name": "caller-vscode",
              "Description": "\u003cinsert-easter-egg-here\u003e",
              "HasValue": true,
              "Hidden": false
            },
            {
              "Name": "caller-xcode",
              "Description": "\u003cinsert-easter-egg-here\u003e",
              "HasValue": true,
              "Hidden": false
            },
            {
              "Name": "trace",
              "Description": "Visualizar mensajes más detallados",
              "HasValue": true,
              "Hidden": false
            }
          ],
          "Hidden": false,
          "Stage": ""
        },
        {
          "Namespace": "dev",
          "Name": "pipeline-get",
          "Alias": "",
          "Aliases": null,
          "Description": "Obtener detalles de un conducto (beta)",
          "Usage": "C:\\Program Files\\IBM\\Cloud\\bin\\ibmcloud.exe dev pipeline-get PIPELINE_ID [opciones]",
          "Flags": [
            {
              "Name": "caller-atom",
              "Description": "\u003cinsert-easter-egg-here\u003e",
              "HasValue": true,
              "Hidden": false
            },
            {
              "Name": "caller-eclipse",
              "Description": "\u003cinsert-easter-egg-here\u003e",
              "HasValue": true,
              "Hidden": false
            },
            {
              "Name": "caller-jetbrains",
              "Description": "\u003cinsert-easter-egg-here\u003e",
              "HasValue": true,
              "Hidden": false
            },
            {
              "Name": "caller-vscode",
              "Description": "\u003cinsert-easter-egg-here\u003e",
              "HasValue": true,
              "Hidden": false
            },
            {
              "Name": "caller-xcode",
              "Description": "\u003cinsert-easter-egg-here\u003e",
              "HasValue": true,
              "Hidden": false
            },
            {
              "Name": "json",
              "Description": "Opcional: Imprime la salida del mandato en formato JSON.",
              "HasValue": true,
              "Hidden": false
            },
            {
              "Name": "trace",
              "Description": "Visualizar mensajes más detallados",
              "HasValue": true,
              "Hidden": false
            }
          ],
          "Hidden": false,
          "Stage": ""
        },
        {
          "Namespace": "dev",
          "Name": "pipeline-log",
          "Alias": "",
          "Aliases": null,
          "Description": "Obtener registros para un conducto, etapa, trabajo o ejecución de trabajo",
          "Usage": "C:\\Program Files\\IBM\\Cloud\\bin\\ibmcloud.exe dev pipeline-log PIPELINE_ID [opciones]",
          "Flags": [
            {
              "Name": "caller-atom",
              "Description": "\u003cinsert-easter-egg-here\u003e",
              "HasValue": true,
              "Hidden": false
            },
            {
              "Name": "caller-eclipse",
              "Description": "\u003cinsert-easter-egg-here\u003e",
              "HasValue": true,
              "Hidden": false
            },
            {
              "Name": "caller-jetbrains",
              "Description": "\u003cinsert-easter-egg-here\u003e",
              "HasValue": true,
              "Hidden": false
            },
            {
              "Name": "caller-vscode",
              "Description": "\u003cinsert-easter-egg-here\u003e",
              "HasValue": true,
              "Hidden": false
            },
            {
              "Name": "caller-xcode",
              "Description": "\u003cinsert-easter-egg-here\u003e",
              "HasValue": true,
              "Hidden": false
            },
            {
              "Name": "trace",
              "Description": "Visualizar mensajes más detallados",
              "HasValue": true,
              "Hidden": false
            },
            {
              "Name": "stage-id",
              "Description": "Especificar el ID de etapa",
              "HasValue": true,
              "Hidden": false
            },
            {
              "Name": "job-id",
              "Description": "Especificar el ID de trabajo (requiere ID de etapa)",
              "HasValue": true,
              "Hidden": false
            },
            {
              "Name": "job-exec-id",
              "Description": "Especificar el ID de ejecución de trabajo (requiere ID de etapa e ID de trabajo)",
              "HasValue": true,
              "Hidden": false
            }
          ],
          "Hidden": false,
          "Stage": ""
        },
        {
          "Namespace": "dev",
          "Name": "pipeline-open",
          "Alias": "",
          "Aliases": null,
          "Description": "Ver un conducto en el navegador",
          "Usage": "C:\\Program Files\\IBM\\Cloud\\bin\\ibmcloud.exe dev pipeline-open PIPELINE_ID [opciones]",
          "Flags": [
            {
              "Name": "caller-atom",
              "Description": "\u003cinsert-easter-egg-here\u003e",
              "HasValue": true,
              "Hidden": false
            },
            {
              "Name": "caller-eclipse",
              "Description": "\u003cinsert-easter-egg-here\u003e",
              "HasValue": true,
              "Hidden": false
            },
            {
              "Name": "caller-jetbrains",
              "Description": "\u003cinsert-easter-egg-here\u003e",
              "HasValue": true,
              "Hidden": false
            },
            {
              "Name": "caller-vscode",
              "Description": "\u003cinsert-easter-egg-here\u003e",
              "HasValue": true,
              "Hidden": false
            },
            {
              "Name": "caller-xcode",
              "Description": "\u003cinsert-easter-egg-here\u003e",
              "HasValue": true,
              "Hidden": false
            },
            {
              "Name": "trace",
              "Description": "Visualizar mensajes más detallados",
              "HasValue": true,
              "Hidden": false
            }
          ],
          "Hidden": false,
          "Stage": ""
        },
        {
          "Namespace": "dev",
          "Name": "pipeline-run",
          "Alias": "",
          "Aliases": null,
          "Description": "Ejecutar un conducto (beta)",
          "Usage": "C:\\Program Files\\IBM\\Cloud\\bin\\ibmcloud.exe dev pipeline-run PIPELINE_ID [opciones]",
          "Flags": [
            {
              "Name": "caller-atom",
              "Description": "\u003cinsert-easter-egg-here\u003e",
              "HasValue": true,
              "Hidden": false
            },
            {
              "Name": "caller-eclipse",
              "Description": "\u003cinsert-easter-egg-here\u003e",
              "HasValue": true,
              "Hidden": false
            },
            {
              "Name": "caller-jetbrains",
              "Description": "\u003cinsert-easter-egg-here\u003e",
              "HasValue": true,
              "Hidden": false
            },
            {
              "Name": "caller-vscode",
              "Description": "\u003cinsert-easter-egg-here\u003e",
              "HasValue": true,
              "Hidden": false
            },
            {
              "Name": "caller-xcode",
              "Description": "\u003cinsert-easter-egg-here\u003e",
              "HasValue": true,
              "Hidden": false
            },
            {
              "Name": "stage-id",
              "Description": "Especificar el ID de etapa",
              "HasValue": true,
              "Hidden": false
            },
            {
              "Name": "json",
              "Description": "Opcional: Imprime la salida del mandato en formato JSON.",
              "HasValue": true,
              "Hidden": false
            },
            {
              "Name": "trace",
              "Description": "Visualizar mensajes más detallados",
              "HasValue": true,
              "Hidden": false
            }
          ],
          "Hidden": false,
          "Stage": ""
        },
        {
          "Namespace": "dev",
          "Name": "run",
          "Alias": "",
          "Aliases": null,
          "Description": "Ejecutar su aplicación en un contenedor local",
          "Usage": "C:\\Program Files\\IBM\\Cloud\\bin\\ibmcloud.exe dev run [opciones]",
          "Flags": [
            {
              "Name": "caller-atom",
              "Description": "\u003cinsert-easter-egg-here\u003e",
              "HasValue": true,
              "Hidden": false
            },
            {
              "Name": "caller-eclipse",
              "Description": "\u003cinsert-easter-egg-here\u003e",
              "HasValue": true,
              "Hidden": false
            },
            {
              "Name": "caller-jetbrains",
              "Description": "\u003cinsert-easter-egg-here\u003e",
              "HasValue": true,
              "Hidden": false
            },
            {
              "Name": "caller-vscode",
              "Description": "\u003cinsert-easter-egg-here\u003e",
              "HasValue": true,
              "Hidden": false
            },
            {
              "Name": "caller-xcode",
              "Description": "\u003cinsert-easter-egg-here\u003e",
              "HasValue": true,
              "Hidden": false
            },
            {
              "Name": "config-file",
              "Description": "Cargar configuración desde archivo",
              "HasValue": true,
              "Hidden": false
            },
            {
              "Name": "container-name-run",
              "Description": "El contenedor de ejecución para ejecutar su aplicación",
              "HasValue": true,
              "Hidden": false
            },
            {
              "Name": "container-name-tools",
              "Description": "El contenedor de herramientas con herramientas de prueba y compilación",
              "HasValue": true,
              "Hidden": false
            },
            {
              "Name": "host-path-run",
              "Description": "Vía de acceso para compilar la aplicación en el sistema host",
              "HasValue": true,
              "Hidden": false
            },
            {
              "Name": "host-path-tools",
              "Description": "Vía de acceso al código fuente de la aplicación en el sistema host",
              "HasValue": true,
              "Hidden": false
            },
            {
              "Name": "container-path-run",
              "Description": "Ubicación para una aplicación en el contenedor de ejecución",
              "HasValue": true,
              "Hidden": false
            },
            {
              "Name": "container-path-tools",
              "Description": "Vía de acceso a las herramientas en el contenedor de herramientas",
              "HasValue": true,
              "Hidden": false
            },
            {
              "Name": "container-mounts-run",
              "Description": "Definir montajes entre el sistema host y el contenedor de ejecución",
              "HasValue": true,
              "Hidden": false
            },
            {
              "Name": "container-mounts-tools",
              "Description": "Definir montajes entre el sistema host y el contenedor de herramientas",
              "HasValue": true,
              "Hidden": false
            },
            {
              "Name": "build-cmd-run",
              "Description": "Mandato de compilación para preparar la aplicación para su utilización",
              "HasValue": true,
              "Hidden": false
            },
            {
              "Name": "run-cmd",
              "Description": "Mandato para ejecutar aplicaciones en el contenedor de ejecución",
              "HasValue": true,
              "Hidden": false
            },
            {
              "Name": "container-port-map",
              "Description": "Correlaciones de puerto \u003cpuerto host\u003e:\u003cpuerto contenedor\u003e, ...",
              "HasValue": true,
              "Hidden": false
            },
            {
              "Name": "image-name-tools",
              "Description": "Imagen con las herramientas para compilar y probar aplicaciones",
              "HasValue": true,
              "Hidden": false
            },
            {
              "Name": "image-name-run",
              "Description": "La imagen para ejecutar su aplicación",
              "HasValue": true,
              "Hidden": false
            },
            {
              "Name": "dockerfile-run",
              "Description": "El contenedor de ejecución Dockerfile",
              "HasValue": true,
              "Hidden": false
            },
            {
              "Name": "dockerfile-tools",
              "Description": "El contenedor de herramientas Dockerfile",
              "HasValue": true,
              "Hidden": false
            },
            {
              "Name": "trace",
              "Description": "Visualizar mensajes más detallados",
              "HasValue": true,
              "Hidden": false
            }
          ],
          "Hidden": false,
          "Stage": ""
        },
        {
          "Namespace": "dev",
          "Name": "shell",
          "Alias": "",
          "Aliases": null,
          "Description": "Abrir un shell en un contenedor local",
          "Usage": "C:\\Program Files\\IBM\\Cloud\\bin\\ibmcloud.exe dev shell CONTAINER [ARG...] [opciones]",
          "Flags": [
            {
              "Name": "caller-atom",
              "Description": "\u003cinsert-easter-egg-here\u003e",
              "HasValue": true,
              "Hidden": false
            },
            {
              "Name": "caller-eclipse",
              "Description": "\u003cinsert-easter-egg-here\u003e",
              "HasValue": true,
              "Hidden": false
            },
            {
              "Name": "caller-jetbrains",
              "Description": "\u003cinsert-easter-egg-here\u003e",
              "HasValue": true,
              "Hidden": false
            },
            {
              "Name": "caller-vscode",
              "Description": "\u003cinsert-easter-egg-here\u003e",
              "HasValue": true,
              "Hidden": false
            },
            {
              "Name": "caller-xcode",
              "Description": "\u003cinsert-easter-egg-here\u003e",
              "HasValue": true,
              "Hidden": false
            },
            {
              "Name": "config-file",
              "Description": "Cargar configuración desde archivo",
              "HasValue": true,
              "Hidden": false
            },
            {
              "Name": "container-name",
              "Description": "Especifique un nombre de contenedor en la línea de mandatos",
              "HasValue": true,
              "Hidden": false
            },
            {
              "Name": "container-shell",
              "Description": "Mandato al abrir un shell en el contenedor de ejecución. El predeterminado es '/bin/sh'.",
              "HasValue": true,
              "Hidden": false
            },
            {
              "Name": "container-shell-target",
              "Description": "El contenedor predeterminado que se debería utilizar al abrir el shell sin especificar 'tools' o 'run' de forma explícita como un parámetro de la interfaz de línea de mandatos. Los valores válidos son 'tools' o 'run'.",
              "HasValue": true,
              "Hidden": false
            },
            {
              "Name": "use-root-user-tools",
              "Description": "Utilizar el usuario raíz para el contenedor de herramientas",
              "HasValue": false,
              "Hidden": false
            },
            {
              "Name": "trace",
              "Description": "Visualizar mensajes más detallados",
              "HasValue": true,
              "Hidden": false
            }
          ],
          "Hidden": false,
          "Stage": ""
        },
        {
          "Namespace": "dev",
          "Name": "status",
          "Alias": "",
          "Aliases": null,
          "Description": "Comprobar el estado de los contenedores utilizados por la CLI",
          "Usage": "C:\\Program Files\\IBM\\Cloud\\bin\\ibmcloud.exe dev status [opciones]",
          "Flags": [
            {
              "Name": "caller-atom",
              "Description": "\u003cinsert-easter-egg-here\u003e",
              "HasValue": true,
              "Hidden": false
            },
            {
              "Name": "caller-eclipse",
              "Description": "\u003cinsert-easter-egg-here\u003e",
              "HasValue": true,
              "Hidden": false
            },
            {
              "Name": "caller-jetbrains",
              "Description": "\u003cinsert-easter-egg-here\u003e",
              "HasValue": true,
              "Hidden": false
            },
            {
              "Name": "caller-vscode",
              "Description": "\u003cinsert-easter-egg-here\u003e",
              "HasValue": true,
              "Hidden": false
            },
            {
              "Name": "caller-xcode",
              "Description": "\u003cinsert-easter-egg-here\u003e",
              "HasValue": true,
              "Hidden": false
            },
            {
              "Name": "config-file",
              "Description": "Cargar configuración desde archivo",
              "HasValue": true,
              "Hidden": false
            },
            {
              "Name": "container-name-run",
              "Description": "El contenedor de ejecución para ejecutar su aplicación",
              "HasValue": true,
              "Hidden": false
            },
            {
              "Name": "container-name-tools",
              "Description": "El contenedor de herramientas con herramientas de prueba y compilación",
              "HasValue": true,
              "Hidden": false
            },
            {
              "Name": "trace",
              "Description": "Visualizar mensajes más detallados",
              "HasValue": true,
              "Hidden": false
            }
          ],
          "Hidden": false,
          "Stage": ""
        },
        {
          "Namespace": "dev",
          "Name": "stop",
          "Alias": "",
          "Aliases": null,
          "Description": "Detener un contenedor",
          "Usage": "C:\\Program Files\\IBM\\Cloud\\bin\\ibmcloud.exe dev stop [opciones]",
          "Flags": [
            {
              "Name": "caller-atom",
              "Description": "\u003cinsert-easter-egg-here\u003e",
              "HasValue": true,
              "Hidden": false
            },
            {
              "Name": "caller-eclipse",
              "Description": "\u003cinsert-easter-egg-here\u003e",
              "HasValue": true,
              "Hidden": false
            },
            {
              "Name": "caller-jetbrains",
              "Description": "\u003cinsert-easter-egg-here\u003e",
              "HasValue": true,
              "Hidden": false
            },
            {
              "Name": "caller-vscode",
              "Description": "\u003cinsert-easter-egg-here\u003e",
              "HasValue": true,
              "Hidden": false
            },
            {
              "Name": "caller-xcode",
              "Description": "\u003cinsert-easter-egg-here\u003e",
              "HasValue": true,
              "Hidden": false
            },
            {
              "Name": "config-file",
              "Description": "Cargar configuración desde archivo",
              "HasValue": true,
              "Hidden": false
            },
            {
              "Name": "container-name-run",
              "Description": "El contenedor de ejecución para ejecutar su aplicación",
              "HasValue": true,
              "Hidden": false
            },
            {
              "Name": "container-name-tools",
              "Description": "El contenedor de herramientas con herramientas de prueba y compilación",
              "HasValue": true,
              "Hidden": false
            },
            {
              "Name": "trace",
              "Description": "Visualizar mensajes más detallados",
              "HasValue": true,
              "Hidden": false
            }
          ],
          "Hidden": false,
          "Stage": ""
        },
        {
          "Namespace": "dev",
          "Name": "test",
          "Alias": "",
          "Aliases": null,
          "Description": "Probar su aplicación en un contenedor local",
          "Usage": "C:\\Program Files\\IBM\\Cloud\\bin\\ibmcloud.exe dev test [opciones]",
          "Flags": [
            {
              "Name": "caller-atom",
              "Description": "\u003cinsert-easter-egg-here\u003e",
              "HasValue": true,
              "Hidden": false
            },
            {
              "Name": "caller-eclipse",
              "Description": "\u003cinsert-easter-egg-here\u003e",
              "HasValue": true,
              "Hidden": false
            },
            {
              "Name": "caller-jetbrains",
              "Description": "\u003cinsert-easter-egg-here\u003e",
              "HasValue": true,
              "Hidden": false
            },
            {
              "Name": "caller-vscode",
              "Description": "\u003cinsert-easter-egg-here\u003e",
              "HasValue": true,
              "Hidden": false
            },
            {
              "Name": "caller-xcode",
              "Description": "\u003cinsert-easter-egg-here\u003e",
              "HasValue": true,
              "Hidden": false
            },
            {
              "Name": "config-file",
              "Description": "Cargar configuración desde archivo",
              "HasValue": true,
              "Hidden": false
            },
            {
              "Name": "container-name-tools",
              "Description": "El contenedor de herramientas con herramientas de prueba y compilación",
              "HasValue": true,
              "Hidden": false
            },
            {
              "Name": "host-path-tools",
              "Description": "Vía de acceso al código fuente de la aplicación en el sistema host",
              "HasValue": true,
              "Hidden": false
            },
            {
              "Name": "container-path-tools",
              "Description": "Vía de acceso a las herramientas en el contenedor de herramientas",
              "HasValue": true,
              "Hidden": false
            },
            {
              "Name": "container-mounts-run",
              "Description": "Definir montajes entre el sistema host y el contenedor de ejecución",
              "HasValue": true,
              "Hidden": false
            },
            {
              "Name": "container-mounts-tools",
              "Description": "Definir montajes entre el sistema host y el contenedor de herramientas",
              "HasValue": true,
              "Hidden": false
            },
            {
              "Name": "use-root-user-tools",
              "Description": "Utilizar el usuario raíz para el contenedor de herramientas",
              "HasValue": false,
              "Hidden": false
            },
            {
              "Name": "build-cmd-run",
              "Description": "Mandato de compilación para preparar la aplicación para su utilización",
              "HasValue": true,
              "Hidden": false
            },
            {
              "Name": "test-cmd",
              "Description": "Mandato para probar aplicaciones en un contenedor",
              "HasValue": true,
              "Hidden": false
            },
            {
              "Name": "container-port-map",
              "Description": "Correlaciones de puerto \u003cpuerto host\u003e:\u003cpuerto contenedor\u003e, ...",
              "HasValue": true,
              "Hidden": false
            },
            {
              "Name": "image-name-tools",
              "Description": "Imagen con las herramientas para compilar y probar aplicaciones",
              "HasValue": true,
              "Hidden": false
            },
            {
              "Name": "dockerfile-tools",
              "Description": "El contenedor de herramientas Dockerfile",
              "HasValue": true,
              "Hidden": false
            },
            {
              "Name": "trace",
              "Description": "Visualizar mensajes más detallados",
              "HasValue": true,
              "Hidden": false
            }
          ],
          "Hidden": false,
          "Stage": ""
        },
        {
          "Namespace": "dev",
          "Name": "toolchain-delete",
          "Alias": "",
          "Aliases": null,
          "Description": "Suprimir una cadena de herramientas",
          "Usage": "C:\\Program Files\\IBM\\Cloud\\bin\\ibmcloud.exe dev toolchain-delete TOOLCHAIN_NAME [opciones]",
          "Flags": [
            {
              "Name": "caller-atom",
              "Description": "\u003cinsert-easter-egg-here\u003e",
              "HasValue": true,
              "Hidden": false
            },
            {
              "Name": "caller-eclipse",
              "Description": "\u003cinsert-easter-egg-here\u003e",
              "HasValue": true,
              "Hidden": false
            },
            {
              "Name": "caller-jetbrains",
              "Description": "\u003cinsert-easter-egg-here\u003e",
              "HasValue": true,
              "Hidden": false
            },
            {
              "Name": "caller-vscode",
              "Description": "\u003cinsert-easter-egg-here\u003e",
              "HasValue": true,
              "Hidden": false
            },
            {
              "Name": "caller-xcode",
              "Description": "\u003cinsert-easter-egg-here\u003e",
              "HasValue": true,
              "Hidden": false
            },
            {
              "Name": "trace",
              "Description": "Visualizar mensajes más detallados",
              "HasValue": true,
              "Hidden": false
            },
            {
              "Name": "force, f",
              "Description": "Forzar la ejecución del mandato",
              "HasValue": true,
              "Hidden": false
            }
          ],
          "Hidden": false,
          "Stage": ""
        },
        {
          "Namespace": "dev",
          "Name": "toolchain-get",
          "Alias": "",
          "Aliases": null,
          "Description": "Obtener detalles de una cadena de herramientas en un grupo de recursos (beta)",
          "Usage": "C:\\Program Files\\IBM\\Cloud\\bin\\ibmcloud.exe dev toolchain-get TOOLCHAIN_NAME [opciones]",
          "Flags": [
            {
              "Name": "caller-atom",
              "Description": "\u003cinsert-easter-egg-here\u003e",
              "HasValue": true,
              "Hidden": false
            },
            {
              "Name": "caller-eclipse",
              "Description": "\u003cinsert-easter-egg-here\u003e",
              "HasValue": true,
              "Hidden": false
            },
            {
              "Name": "caller-jetbrains",
              "Description": "\u003cinsert-easter-egg-here\u003e",
              "HasValue": true,
              "Hidden": false
            },
            {
              "Name": "caller-vscode",
              "Description": "\u003cinsert-easter-egg-here\u003e",
              "HasValue": true,
              "Hidden": false
            },
            {
              "Name": "caller-xcode",
              "Description": "\u003cinsert-easter-egg-here\u003e",
              "HasValue": true,
              "Hidden": false
            },
            {
              "Name": "json",
              "Description": "Opcional: Imprime la salida del mandato en formato JSON.",
              "HasValue": true,
              "Hidden": false
            },
            {
              "Name": "trace",
              "Description": "Visualizar mensajes más detallados",
              "HasValue": true,
              "Hidden": false
            }
          ],
          "Hidden": false,
          "Stage": ""
        },
        {
          "Namespace": "dev",
          "Name": "toolchain-open",
          "Alias": "",
          "Aliases": null,
          "Description": "Ver una cadena de herramientas en el navegador",
          "Usage": "C:\\Program Files\\IBM\\Cloud\\bin\\ibmcloud.exe dev toolchain-open TOOLCHAIN_NAME [opciones]",
          "Flags": [
            {
              "Name": "caller-atom",
              "Description": "\u003cinsert-easter-egg-here\u003e",
              "HasValue": true,
              "Hidden": false
            },
            {
              "Name": "caller-eclipse",
              "Description": "\u003cinsert-easter-egg-here\u003e",
              "HasValue": true,
              "Hidden": false
            },
            {
              "Name": "caller-jetbrains",
              "Description": "\u003cinsert-easter-egg-here\u003e",
              "HasValue": true,
              "Hidden": false
            },
            {
              "Name": "caller-vscode",
              "Description": "\u003cinsert-easter-egg-here\u003e",
              "HasValue": true,
              "Hidden": false
            },
            {
              "Name": "caller-xcode",
              "Description": "\u003cinsert-easter-egg-here\u003e",
              "HasValue": true,
              "Hidden": false
            },
            {
              "Name": "trace",
              "Description": "Visualizar mensajes más detallados",
              "HasValue": true,
              "Hidden": false
            }
          ],
          "Hidden": false,
          "Stage": ""
        },
        {
          "Namespace": "dev",
          "Name": "toolchains",
          "Alias": "",
          "Aliases": null,
          "Description": "Listar todas las cadenas de herramientas en un grupo de recursos (beta)",
          "Usage": "C:\\Program Files\\IBM\\Cloud\\bin\\ibmcloud.exe dev toolchains [opciones]",
          "Flags": [
            {
              "Name": "caller-atom",
              "Description": "\u003cinsert-easter-egg-here\u003e",
              "HasValue": true,
              "Hidden": false
            },
            {
              "Name": "caller-eclipse",
              "Description": "\u003cinsert-easter-egg-here\u003e",
              "HasValue": true,
              "Hidden": false
            },
            {
              "Name": "caller-jetbrains",
              "Description": "\u003cinsert-easter-egg-here\u003e",
              "HasValue": true,
              "Hidden": false
            },
            {
              "Name": "caller-vscode",
              "Description": "\u003cinsert-easter-egg-here\u003e",
              "HasValue": true,
              "Hidden": false
            },
            {
              "Name": "caller-xcode",
              "Description": "\u003cinsert-easter-egg-here\u003e",
              "HasValue": true,
              "Hidden": false
            },
            {
              "Name": "json",
              "Description": "Opcional: Imprime la salida del mandato en formato JSON.",
              "HasValue": true,
              "Hidden": false
            },
            {
              "Name": "trace",
              "Description": "Visualizar mensajes más detallados",
              "HasValue": true,
              "Hidden": false
            }
          ],
          "Hidden": false,
          "Stage": ""
        },
        {
          "Namespace": "dev",
          "Name": "view",
          "Alias": "",
          "Aliases": null,
          "Description": "Visualizar el URL de su aplicación",
          "Usage": "C:\\Program Files\\IBM\\Cloud\\bin\\ibmcloud.exe dev view [opciones]",
          "Flags": [
            {
              "Name": "caller-atom",
              "Description": "\u003cinsert-easter-egg-here\u003e",
              "HasValue": true,
              "Hidden": false
            },
            {
              "Name": "caller-eclipse",
              "Description": "\u003cinsert-easter-egg-here\u003e",
              "HasValue": true,
              "Hidden": false
            },
            {
              "Name": "caller-jetbrains",
              "Description": "\u003cinsert-easter-egg-here\u003e",
              "HasValue": true,
              "Hidden": false
            },
            {
              "Name": "caller-vscode",
              "Description": "\u003cinsert-easter-egg-here\u003e",
              "HasValue": true,
              "Hidden": false
            },
            {
              "Name": "caller-xcode",
              "Description": "\u003cinsert-easter-egg-here\u003e",
              "HasValue": true,
              "Hidden": false
            },
            {
              "Name": "config-file",
              "Description": "Cargar configuración desde archivo",
              "HasValue": true,
              "Hidden": false
            },
            {
              "Name": "no-open",
              "Description": "No abrir el navegador",
              "HasValue": true,
              "Hidden": false
            },
            {
              "Name": "web-app-root",
              "Description": "Raíz de aplicación para añadir al URL de la aplicación de Kubernetes",
              "HasValue": true,
              "Hidden": false
            },
            {
              "Name": "target, t",
              "Description": "Tipo de destino de despliegue: buildpack|container",
              "HasValue": true,
              "Hidden": false
            },
            {
              "Name": "ibm-cluster",
              "Description": "Clúster IBM utilizado para alojar un contenedor",
              "HasValue": true,
              "Hidden": false
            },
            {
              "Name": "trace",
              "Description": "Visualizar mensajes más detallados",
              "HasValue": true,
              "Hidden": false
            }
          ],
          "Hidden": false,
          "Stage": ""
        }
      ],
      "SDKVersion": {
        "Major": 0,
        "Minor": 2,
        "Build": 1
      },
      "DelegateBashCompletion": false
    }
  }
}